{
    "name": "Dev Container",
    "initializeCommand": "git config --add safe.directory /home/node/app && docker network inspect sql-network || docker network create sql-network",
    "dockerComposeFile": [
          "../docker-compose.yml",
          "./docker-compose.yml"
      ],
    "service": "web",
    "workspaceFolder": "/home/node/app",
    "postCreateCommand": "npm install",
    "customizations": {
      "vscode": {
        "settings": {
          "terminal.integrated.defaultProfile.linux": "bash",
          "terminal.integrated.profiles.linux": {
            "bash": {
              "path": "/bin/bash"
            }
          }
        },
        "extensions": [
          "dbaeumer.vscode-eslint",
          "esbenp.prettier-vscode",
          "ms-vscode-remote.remote-containers",
          "ms-azuretools.vscode-docker",
          "mhutchie.git-graph",
          "donjayamanne.githistory",
          "prisma.prisma",
          "wayou.vscode-todo-highlight",
          "gruntfuggly.todo-tree"
          ]
      }
    }
  }
  